EESchema Schematic File Version 5
LIBS:robot_pcb0-cache
EELAYER 29 0
EELAYER END
$Descr A4 11693 8268
encoding utf-8
Sheet 4 6
Title ""
Date ""
Rev ""
Comp "Benjamin Vedder & Joel Svensson"
Comment1 ""
Comment2 ""
Comment3 ""
Comment4 ""
$EndDescr
$Comp
L Mechanical:MountingHole MK4
U 1 1 5B441261
P 5550 2950
F 0 "MK4" H 5650 2996 50  0000 L CNN
F 1 "Mounting_Hole" H 5650 2905 50  0000 L CNN
F 2 "MountingHole:MountingHole_3.2mm_M3" H 5550 2950 50  0001 C CNN
F 3 "" H 5550 2950 50  0001 C CNN
	1    5550 2950
	1    0    0    -1  
$EndComp
$Comp
L Mechanical:MountingHole MK2
U 1 1 5B441268
P 3600 2900
F 0 "MK2" H 3700 2946 50  0000 L CNN
F 1 "Mounting_Hole" H 3700 2855 50  0000 L CNN
F 2 "MountingHole:MountingHole_3.2mm_M3" H 3600 2900 50  0001 C CNN
F 3 "" H 3600 2900 50  0001 C CNN
	1    3600 2900
	1    0    0    -1  
$EndComp
$Comp
L Mechanical:MountingHole MK3
U 1 1 5B44126F
P 5550 2200
F 0 "MK3" H 5650 2246 50  0000 L CNN
F 1 "Mounting_Hole" H 5650 2155 50  0000 L CNN
F 2 "MountingHole:MountingHole_3.2mm_M3" H 5550 2200 50  0001 C CNN
F 3 "" H 5550 2200 50  0001 C CNN
	1    5550 2200
	1    0    0    -1  
$EndComp
$Comp
L Mechanical:MountingHole MK1
U 1 1 5B441276
P 3600 2200
F 0 "MK1" H 3700 2246 50  0000 L CNN
F 1 "Mounting_Hole" H 3700 2155 50  0000 L CNN
F 2 "MountingHole:MountingHole_3.2mm_M3" H 3600 2200 50  0001 C CNN
F 3 "" H 3600 2200 50  0001 C CNN
	1    3600 2200
	1    0    0    -1  
$EndComp
$EndSCHEMATC
