EESchema Schematic File Version 5
LIBS:robot_pcb0-cache
EELAYER 29 0
EELAYER END
$Descr A4 11693 8268
encoding utf-8
Sheet 1 6
Title "Four DC-Motor Controller"
Date ""
Rev ""
Comp "Benjamin Vedder & Joel Svensson"
Comment1 ""
Comment2 ""
Comment3 ""
Comment4 ""
$EndDescr
$Sheet
S 800  700  1700 1350
U 5AF92F5C
F0 "base_sheet" 50
F1 "base.sch" 50
$EndSheet
Text Notes 1100 850  0    50   ~ 0
STM32F4 \n
$Sheet
S 800  2450 1750 1400
U 5B1BB5D0
F0 "power_sheet" 50
F1 "power.sch" 50
$EndSheet
Text Notes 1150 2700 0    50   ~ 0
5V, 3.3V
$Sheet
S 800  4100 1750 1350
U 5B4411CA
F0 "mounitng_sheet" 50
F1 "mounting.sch" 50
$EndSheet
Text Notes 1150 4350 0    50   ~ 0
Mounting holes\n
$Sheet
S 2800 700  1700 1350
U 5B516B04
F0 "motor_control_sheet" 50
F1 "motor_control.sch" 50
$EndSheet
Text Notes 3200 900  0    50   ~ 0
DRV8833
$Sheet
S 2850 2450 1700 1400
U 5CF66F52
F0 "nrf52" 50
F1 "nrf52.sch" 50
$EndSheet
$EndSCHEMATC
